1 ano/1 Semestre/ISD/Teste Pratico 2 ISD/Ex5e6/simulation/qsim/MSpecialCount.msim.vcd
$comment
	File created using the following command:
		vcd file MSpecialCount.msim.vcd -direction
$end
$date
	Fri Dec 22 10:32:05 2023
$end
$version
	Questa Intel Starter FPGA Edition Version 2021.2
$end
$timescale
	1ps
$end

$scope module mspecialcount_vhd_vec_tst $end
$var wire 1 ! clock $end
$var wire 1 " M $end
$var wire 1 # q [3] $end
$var wire 1 $ q [2] $end
$var wire 1 % q [1] $end
$var wire 1 & q [0] $end

$scope module i1 $end
$var wire 1 ' gnd $end
$var wire 1 ( vcc $end
$var wire 1 ) unknown $end
$var wire 1 * devoe $end
$var wire 1 + devclrn $end
$var wire 1 , devpor $end
$var wire 1 - ww_devoe $end
$var wire 1 . ww_devclrn $end
$var wire 1 / ww_devpor $end
$var wire 1 0 ww_q [3] $end
$var wire 1 1 ww_q [2] $end
$var wire 1 2 ww_q [1] $end
$var wire 1 3 ww_q [0] $end
$var wire 1 4 ww_M $end
$var wire 1 5 ww_clock $end
$var wire 1 6 \M~input_o\ $end
$var wire 1 7 \clock~input_o\ $end
$var wire 1 8 \q[3]~output_o\ $end
$var wire 1 9 \q[2]~output_o\ $end
$var wire 1 : \q[1]~output_o\ $end
$var wire 1 ; \q[0]~output_o\ $end
$upscope $end
$upscope $end
$enddefinitions $end
#0
$dumpvars
0!
0"
0'
1(
x)
1*
1+
1,
1-
1.
1/
04
05
06
07
08
09
0:
0;
0#
0$
0%
0&
00
01
02
03
$end
#25000
1!
15
17
#50000
0!
05
07
#75000
1!
15
17
#100000
0!
05
07
#125000
1!
15
17
#150000
0!
05
07
#175000
1!
15
17
#200000
0!
05
07
#225000
1!
15
17
#250000
0!
05
07
#275000
1!
15
17
#300000
0!
05
07
#325000
1!
15
17
#350000
0!
05
07
#375000
1!
15
17
#400000
0!
05
07
#425000
1!
15
17
#450000
0!
05
07
#475000
1!
15
17
#500000
0!
05
07
#525000
1!
15
17
#550000
0!
05
07
#575000
1!
15
17
#600000
0!
05
07
#625000
1!
15
17
#650000
0!
05
07
#675000
1!
15
17
#700000
0!
05
07
#725000
1!
15
17
#750000
0!
05
07
#775000
1!
15
17
#800000
0!
05
07
#825000
1!
15
17
#850000
0!
05
07
#875000
1!
15
17
#900000
0!
05
07
#925000
1!
15
17
#950000
0!
05
07
#975000
1!
15
17
